<?xml version="1.0" encoding="UTF-8" standalone="no"?>
<!-- Created with Inkscape (http://www.inkscape.org/) -->

<svg
   width="600"
   height="200"
   id="svg2"
   version="1.1"
   inkscape:version="1.3.2 (091e20e, 2023-11-25, custom)"
   sodipodi:docname="ghc_to_pco.svg"
   inkscape:export-filename="ghc_logo.32.png"
   inkscape:export-xdpi="17.066668"
   inkscape:export-ydpi="17.066668"
   xml:space="preserve"
   xmlns:inkscape="http://www.inkscape.org/namespaces/inkscape"
   xmlns:sodipodi="http://sodipodi.sourceforge.net/DTD/sodipodi-0.dtd"
   xmlns="http://www.w3.org/2000/svg"
   xmlns:svg="http://www.w3.org/2000/svg"
   xmlns:rdf="http://www.w3.org/1999/02/22-rdf-syntax-ns#"
   xmlns:cc="http://creativecommons.org/ns#"
   xmlns:dc="http://purl.org/dc/elements/1.1/"><defs
     id="defs4" /><sodipodi:namedview
     id="base"
     pagecolor="#ffffff"
     bordercolor="#666666"
     borderopacity="1.0"
     inkscape:pageopacity="0.0"
     inkscape:pageshadow="2"
     inkscape:zoom="1.4"
     inkscape:cx="340.71429"
     inkscape:cy="96.071429"
     inkscape:document-units="px"
     inkscape:current-layer="layer1"
     showgrid="false"
     fit-margin-left="0.3"
     fit-margin-top="0.3"
     fit-margin-right="0.3"
     fit-margin-bottom="0.3"
     inkscape:window-width="1722"
     inkscape:window-height="1083"
     inkscape:window-x="3049"
     inkscape:window-y="237"
     inkscape:window-maximized="1"
     units="in"
     inkscape:showpageshadow="2"
     inkscape:pagecheckerboard="0"
     inkscape:deskcolor="#d1d1d1"
     showguides="true"><sodipodi:guide
       position="475,192"
       orientation="-1,0"
       id="guide5"
       inkscape:locked="false"
       inkscape:label=""
       inkscape:color="rgb(0,134,229)" /><sodipodi:guide
       position="300,12"
       orientation="-1,0"
       id="guide7"
       inkscape:locked="false"
       inkscape:label=""
       inkscape:color="rgb(0,134,229)" /><sodipodi:guide
       position="0,92"
       orientation="0,1"
       id="guide8"
       inkscape:label=""
       inkscape:locked="false"
       inkscape:color="rgb(0,134,229)" /><sodipodi:guide
       position="125,12"
       orientation="-1,0"
       id="guide9"
       inkscape:label=""
       inkscape:locked="false"
       inkscape:color="rgb(0,134,229)" /></sodipodi:namedview><metadata
     id="metadata7"><rdf:RDF><cc:Work
         rdf:about=""><dc:format>image/svg+xml</dc:format><dc:type
           rdf:resource="http://purl.org/dc/dcmitype/StillImage" /></cc:Work></rdf:RDF></metadata><g
     inkscape:groupmode="layer"
     id="layer3"
     inkscape:label="Layer 2"><rect
       style="fill:#ffffff;fill-opacity:1;stroke:none;stroke-width:15.1181;stroke-linecap:round;stroke-linejoin:round;stroke-dasharray:none;stroke-opacity:0.968627"
       id="rect9"
       width="600"
       height="200"
       x="7.2412108e-06"
       y="9.0869144e-06" /></g><g
     inkscape:label="Layer 1"
     inkscape:groupmode="layer"
     id="layer1"
     transform="translate(-184.57029,-186.94068)"
     style="display:inline"><path
       style="-inkscape-font-specification:'Arvo Bold';stroke-width:0.377953;stroke-linecap:round;stroke-linejoin:round"
       d="m 505.60373,273.86177 v 29.42407 q 0,1.95554 0.72764,3.22891 0.77312,1.2279 2.31936,1.2279 2.22841,0 3.6837,-1.36433 1.45528,-1.36433 2.27388,-3.54726 0.86408,-2.18293 1.18242,-4.82064 0.31834,-2.68318 0.31834,-5.27541 0,-3.91108 -1.13694,-7.59477 -1.09146,-3.68369 -3.13796,-6.91261 -2.0465,-3.27439 -4.91159,-5.95758 -2.86509,-2.72866 -6.36688,-4.6842 -3.50178,-1.95554 -7.54929,-3.00152 -4.04751,-1.09147 -8.45885,-1.09147 -4.36586,0 -8.36789,1.13694 -4.00204,1.09147 -7.50382,3.13796 -3.50178,2.0465 -6.36688,4.95707 -2.81961,2.8651 -4.86611,6.36688 -2.0465,3.4563 -3.18344,7.45834 -1.09146,4.00203 -1.09146,8.32241 0,6.54879 2.45579,12.27898 2.4558,5.73019 6.68522,10.00509 4.2749,4.2749 9.95962,6.7307 5.73018,2.50127 12.27897,2.50127 4.50229,0 8.9591,-1.45529 4.45682,-1.4098 8.73172,-3.95656 l 6.23044,10.32344 q -5.63923,3.41083 -11.73324,5.22993 -6.09401,1.86459 -12.18802,1.86459 -6.00305,0 -11.59681,-1.54624 -5.54828,-1.54624 -10.41439,-4.36586 -4.82063,-2.81962 -8.77719,-6.82165 -3.95656,-3.95656 -6.82166,-8.7772 -2.81961,-4.82063 -4.36585,-10.36891 -1.54624,-5.59375 -1.54624,-11.64229 0,-6.00305 1.54624,-11.55133 1.54624,-5.54828 4.36585,-10.36891 2.8651,-4.82063 6.82166,-8.77719 3.95656,-3.95656 8.77719,-6.77618 4.86611,-2.81961 10.41439,-4.36586 5.59376,-1.54624 11.59681,-1.54624 6.04853,0 11.64229,1.50077 5.59375,1.50076 10.41439,4.22942 4.86611,2.68318 8.82267,6.50331 3.95656,3.77465 6.77617,8.36789 2.81962,4.54777 4.36586,9.77771 1.54624,5.18445 1.54624,10.77821 0,4.63872 -1.36433,9.18649 -1.36433,4.54777 -4.04751,8.18598 -2.63771,3.63822 -6.59427,5.9121 -3.91108,2.22841 -9.05006,2.22841 -3.63821,0 -6.36687,-1.27338 -2.72866,-1.27337 -4.59325,-3.59273 -2.59223,2.2284 -5.86662,3.50178 -3.27439,1.27337 -6.36688,1.27337 -5.00254,0 -9.23197,-1.8191 -4.22942,-1.81911 -7.3219,-4.91159 -3.04701,-3.09249 -4.77516,-7.14 -1.72815,-4.09299 -1.72815,-8.64076 0,-4.41134 1.6372,-8.45885 1.63719,-4.04751 4.54776,-7.09452 2.95605,-3.09248 7.00357,-4.91159 4.09299,-1.81911 8.9591,-1.81911 2.68318,0 5.04802,0.54574 2.36484,0.54573 4.54777,1.45528 v -1.40981 z m -21.73834,30.92483 q 2.72867,0 5.00255,-1.40981 2.31936,-1.45529 3.68369,-4.04751 v -7.23096 q -0.59121,-1.31885 -1.50076,-2.41031 -0.86408,-1.09147 -2.00102,-1.86459 -1.09146,-0.8186 -2.41032,-1.22789 -1.27337,-0.45478 -2.6377,-0.45478 -1.91006,0 -3.63822,0.72764 -1.72815,0.72764 -3.00152,2.00102 -1.27338,1.27337 -2.0465,3.00153 -0.72764,1.72815 -0.72764,3.68369 0,2.04649 0.72764,3.77465 0.72764,1.68267 2.00102,2.91057 1.27337,1.2279 2.95605,1.91006 1.68267,0.63669 3.59273,0.63669 z"
       id="text1"
       aria-label="@" /><path
       style="fill:none;stroke:#f9a025;stroke-width:8.3452;stroke-linecap:round;stroke-linejoin:round;stroke-miterlimit:4;stroke-dasharray:none;stroke-opacity:0.968627"
       d="m 229.35081,322.34511 c 52.35364,-27.43388 94.35601,-7.42627 91.72672,28.20089 -14.69977,4.95337 -39.98343,0.91225 -51.15528,-5.87518 0.67759,-16.63357 2.66323,-28.88386 8.81987,-42.88884 17.25058,-10.72575 29.53987,-15.25484 40.57144,-18.21307 l -10.53035,-35.28676 v -17.1923 h 9.45524 -9.45524 v -10.03516 10.03516 h -9.00993 9.00993 v 17.1923 l -11.81333,36.46178 c 50.11113,7.61277 49.0129,36.96627 48.80331,53.46419 -22.00565,7.4958 -33.08247,4.07159 -47.03936,3.5251 -2.51747,-39.49863 45.43017,-52.17559 88.19878,-29.3759"
       id="path2996"
       inkscape:connector-curvature="0"
       sodipodi:nodetypes="cccccccccccccccccc" /><g
       id="g1"
       transform="matrix(3.3333313,0,0,3.3333313,-749.44518,-661.10982)"
       style="stroke-width:0.3"><rect
         x="406.7049"
         y="270.41531"
         width="31"
         height="28"
         fill="#ffffff"
         id="rect2"
         style="stroke-width:0.3" /><path
         d="m 429.4012,279.70241 c 0.1282,-0.0381 0.2569,0.058 0.2569,0.1917 v 6.3347 c 0,0.0886 -0.0583,0.1666 -0.1433,0.1918 l -6.5412,1.9328 c -0.1853,0.0548 -0.3826,0.0547 -0.5679,-3e-4 l -6.5109,-1.9324 c -0.0849,-0.0252 -0.1431,-0.1032 -0.1431,-0.1918 v -6.3348 c 0,-0.1337 0.1287,-0.2298 0.2569,-0.1917 l 5.4909,1.6297 c 0.7854,0.2331 1.6254,0.2331 2.4108,0 z"
         fill="#2266f7"
         id="path2"
         style="stroke-width:0.3" /><path
         fill-rule="evenodd"
         clip-rule="evenodd"
         d="m 425.2882,263.76052 c -1.6925,-0.46028 -3.4741,-0.46028 -5.1666,0 l -13.22502,3.59664 c -3.06197,0.83273 -5.19168,3.65398 -5.19168,6.87745 v 20.3614 c 0,3.2235 2.12972,6.0447 5.19169,6.8774 l 13.22501,3.5967 c 1.6925,0.4603 3.4741,0.4603 5.1666,0 l 13.225,-3.5967 c 3.062,-0.8327 5.1917,-3.6539 5.1917,-6.8774 v -20.3614 c 0,-3.22347 -2.1297,-6.04472 -5.1917,-6.87745 z m -9.2796,26.77799 c -0.1282,-0.038 -0.2569,0.058 -0.2569,0.1917 v 4.3772 c 0,0.4269 -0.4045,0.7379 -0.817,0.6282 l -2.7468,-0.7302 c -0.2848,-0.0757 -0.483,-0.3335 -0.483,-0.6281 v -16.5129 c 0,-1.7508 1.7564,-3.0021 3.4913,-2.4872 l 7.2095,2.1397 c 0.1853,0.055 0.3826,0.0552 0.568,4e-4 l 7.2399,-2.1401 c 1.7349,-0.5149 3.4913,0.7364 3.4913,2.4872 v 9.4748 c 0,1.1424 -0.7725,2.1513 -1.9045,2.4872 l -7.8901,2.3418 c -0.7854,0.2331 -1.6254,0.2331 -2.4108,0 z"
         fill="#2266f7"
         id="path3"
         style="stroke-width:0.3" /></g></g></svg>
